[gd_scene load_steps=12 format=2]

[ext_resource path="res://Scenes/Player.tscn" type="PackedScene" id=1]
[ext_resource path="res://Assets/Tileset/StoneWorld.tres" type="TileSet" id=2]
[ext_resource path="res://Assets/portal-in.png" type="Texture" id=3]
[ext_resource path="res://Scenes/Area Trigger.tscn" type="PackedScene" id=4]
[ext_resource path="res://Assets/kenney_platformerpack/PNG/Tiles/waterTop_high.png" type="Texture" id=5]
[ext_resource path="res://Scenes/Life Counter.tscn" type="PackedScene" id=6]
[ext_resource path="res://Assets/Fonts/new_dynamicfont.tres" type="DynamicFont" id=7]
[ext_resource path="res://Scenes/MainMenu1.gd" type="Script" id=8]
[ext_resource path="res://Assets/portal-out.png" type="Texture" id=9]
[ext_resource path="res://Assets/backgroundCastles.png" type="Texture" id=10]
[ext_resource path="res://Assets/castle.ogg" type="AudioStream" id=11]

[node name="Level 1" type="Node2D"]

[node name="Player" parent="." instance=ExtResource( 1 )]
position = Vector2( 144.475, 47.5724 )
speed = 300

[node name="TileMap" type="TileMap" parent="."]
scale = Vector2( 0.5, 0.5 )
tile_set = ExtResource( 2 )
cell_size = Vector2( 128, 128 )
format = 1
tile_data = PoolIntArray( 327681, 0, 3, 327682, 0, 0, 327683, 0, 0, 327684, 0, 0, 327685, 0, 0, 327688, 0, 0, 327689, 0, 0, 327690, 0, 0, 327691, 0, 0, 327692, 0, 0, 327693, 0, 65540, 393218, 0, 1, 393219, 0, 1, 393220, 0, 1, 393221, 0, 1, 393224, 0, 1, 393225, 0, 1, 393226, 0, 1, 393227, 0, 1, 393228, 0, 1, 393229, 0, 7, 393230, 0, 65540, 458754, 0, 1, 458755, 0, 1, 458756, 0, 1, 458757, 0, 1, 458760, 0, 1, 458761, 0, 1, 458762, 0, 1, 458763, 0, 1, 458764, 0, 1, 458765, 0, 1, 458766, 0, 7, 458767, 0, 65540, 524290, 0, 1, 524291, 0, 1, 524292, 0, 1, 524293, 0, 1, 524296, 0, 1, 524297, 0, 1, 524298, 0, 1, 524299, 0, 1, 524300, 0, 1, 524301, 0, 1, 524302, 0, 1, 524303, 0, 7, 524304, 0, 65540, 524308, 0, 0, 589826, 0, 1, 589827, 0, 1, 589828, 0, 1, 589829, 0, 1, 589832, 0, 1, 589833, 0, 1, 589834, 0, 1, 589835, 0, 1, 589836, 0, 1, 589837, 0, 1, 589838, 0, 1, 589839, 0, 1, 589840, 0, 7, 589841, 0, 65540, 589843, 0, 65542, 589844, 0, 1, 655362, 0, 1, 655363, 0, 1, 655364, 0, 1, 655365, 0, 1, 655368, 0, 1, 655369, 0, 1, 655370, 0, 1, 655371, 0, 1, 655372, 0, 1, 655373, 0, 1, 655374, 0, 1, 655375, 0, 1, 655376, 0, 1, 655377, 0, 7, 655378, 0, 65543, 655379, 0, 1, 655380, 0, 1, 655381, 0, 65543, 655382, 0, 65543, 655383, 0, 65543, 655384, 0, 65543, 655385, 0, 65543, 655386, 0, 65543, 655387, 0, 6 )

[node name="Sprite" type="Sprite" parent="."]
position = Vector2( 1954.54, 551.914 )
scale = Vector2( 1.39051, 1.44376 )
texture = ExtResource( 3 )

[node name="Area Trigger" parent="Sprite" instance=ExtResource( 4 )]
position = Vector2( 1.48523, 0.794693 )
scale = Vector2( 0.6, 0.9 )
sceneName = "Level 2"

[node name="Sprite3" type="Sprite" parent="."]
position = Vector2( 690.646, 767.682 )
scale = Vector2( 31.6296, 1 )
texture = ExtResource( 5 )

[node name="Area Trigger" parent="Sprite3" instance=ExtResource( 4 )]
position = Vector2( 2.64803, 3.59235 )

[node name="CanvasLayer" type="CanvasLayer" parent="."]

[node name="GUI" parent="CanvasLayer" instance=ExtResource( 6 )]

[node name="LinkButton" type="LinkButton" parent="CanvasLayer"]
margin_left = 664.0
margin_right = 1021.0
margin_bottom = 77.0
custom_fonts/font = ExtResource( 7 )
custom_colors/font_color = Color( 0, 0, 0, 1 )
text = "Main Menu"
script = ExtResource( 8 )
scene_to_load = "MainMenu"

[node name="Sprite2" type="Sprite" parent="."]
position = Vector2( 140.869, 47.7136 )
texture = ExtResource( 9 )

[node name="ParallaxBackground" type="ParallaxBackground" parent="."]

[node name="Sprite" type="Sprite" parent="ParallaxBackground"]
position = Vector2( 367.714, 198.277 )
scale = Vector2( 1.35206, 1.21827 )
texture = ExtResource( 10 )

[node name="AudioStreamPlayer2D" type="AudioStreamPlayer2D" parent="."]
stream = ExtResource( 11 )
autoplay = true
[connection signal="pressed" from="CanvasLayer/LinkButton" to="CanvasLayer/LinkButton" method="_on_Main_Menu1_pressed"]
